<svg width="8" height="13" viewBox="0 0 8 13" fill="none" xmlns="http://www.w3.org/2000/svg">
<path d="M7.87324 6.15966L2.78415 0.201133C2.58758 -0.0285407 2.23329 -0.0653752 1.98644 0.116631L0.217312 1.43942C0.0973132 1.52934 0.0207421 1.66151 0.00359943 1.8056C-0.0135433 1.94969 0.0310281 2.09378 0.127027 2.20645L3.79671 6.49984L0.127027 10.7932C0.0310281 10.9059 -0.0135433 11.05 0.00359943 11.1941C0.0207421 11.3382 0.0973131 11.4692 0.218455 11.5592L1.98644 12.883C2.09044 12.9621 2.21501 13 2.33958 13C2.50643 13 2.671 12.9318 2.78415 12.7985L7.87324 6.84002C8.04239 6.64288 8.04239 6.35795 7.87324 6.15966Z" fill="#6848E2"/>
</svg>
