<svg width="358" height="8" viewBox="0 0 358 8" fill="none" xmlns="http://www.w3.org/2000/svg">
<path d="M0 4C0 1.79086 1.79086 0 4 0H354C356.209 0 358 1.79086 358 4C358 6.20914 356.209 8 354 8H4C1.79086 8 0 6.20914 0 4Z" fill="#6848E2" fill-opacity="0.3"/>
</svg>
